{
  "count": 1118,
  "next": "https://pokeapi.co/api/v2/pokemon?offset=600&limit=100",
  "previous": "https://pokeapi.co/api/v2/pokemon?offset=400&limit=100",
  "results": [
    { "name": "oshawott", "url": "https://pokeapi.co/api/v2/pokemon/501/" },
    { "name": "dewott", "url": "https://pokeapi.co/api/v2/pokemon/502/" },
    { "name": "samurott", "url": "https://pokeapi.co/api/v2/pokemon/503/" },
    { "name": "patrat", "url": "https://pokeapi.co/api/v2/pokemon/504/" },
    { "name": "watchog", "url": "https://pokeapi.co/api/v2/pokemon/505/" },
    { "name": "lillipup", "url": "https://pokeapi.co/api/v2/pokemon/506/" },
    { "name": "herdier", "url": "https://pokeapi.co/api/v2/pokemon/507/" },
    { "name": "stoutland", "url": "https://pokeapi.co/api/v2/pokemon/508/" },
    { "name": "purrloin", "url": "https://pokeapi.co/api/v2/pokemon/509/" },
    { "name": "liepard", "url": "https://pokeapi.co/api/v2/pokemon/510/" },
    { "name": "pansage", "url": "https://pokeapi.co/api/v2/pokemon/511/" },
    { "name": "simisage", "url": "https://pokeapi.co/api/v2/pokemon/512/" },
    { "name": "pansear", "url": "https://pokeapi.co/api/v2/pokemon/513/" },
    { "name": "simisear", "url": "https://pokeapi.co/api/v2/pokemon/514/" },
    { "name": "panpour", "url": "https://pokeapi.co/api/v2/pokemon/515/" },
    { "name": "simipour", "url": "https://pokeapi.co/api/v2/pokemon/516/" },
    { "name": "munna", "url": "https://pokeapi.co/api/v2/pokemon/517/" },
    { "name": "musharna", "url": "https://pokeapi.co/api/v2/pokemon/518/" },
    { "name": "pidove", "url": "https://pokeapi.co/api/v2/pokemon/519/" },
    { "name": "tranquill", "url": "https://pokeapi.co/api/v2/pokemon/520/" },
    { "name": "unfezant", "url": "https://pokeapi.co/api/v2/pokemon/521/" },
    { "name": "blitzle", "url": "https://pokeapi.co/api/v2/pokemon/522/" },
    { "name": "zebstrika", "url": "https://pokeapi.co/api/v2/pokemon/523/" },
    { "name": "roggenrola", "url": "https://pokeapi.co/api/v2/pokemon/524/" },
    { "name": "boldore", "url": "https://pokeapi.co/api/v2/pokemon/525/" },
    { "name": "gigalith", "url": "https://pokeapi.co/api/v2/pokemon/526/" },
    { "name": "woobat", "url": "https://pokeapi.co/api/v2/pokemon/527/" },
    { "name": "swoobat", "url": "https://pokeapi.co/api/v2/pokemon/528/" },
    { "name": "drilbur", "url": "https://pokeapi.co/api/v2/pokemon/529/" },
    { "name": "excadrill", "url": "https://pokeapi.co/api/v2/pokemon/530/" },
    { "name": "audino", "url": "https://pokeapi.co/api/v2/pokemon/531/" },
    { "name": "timburr", "url": "https://pokeapi.co/api/v2/pokemon/532/" },
    { "name": "gurdurr", "url": "https://pokeapi.co/api/v2/pokemon/533/" },
    { "name": "conkeldurr", "url": "https://pokeapi.co/api/v2/pokemon/534/" },
    { "name": "tympole", "url": "https://pokeapi.co/api/v2/pokemon/535/" },
    { "name": "palpitoad", "url": "https://pokeapi.co/api/v2/pokemon/536/" },
    { "name": "seismitoad", "url": "https://pokeapi.co/api/v2/pokemon/537/" },
    { "name": "throh", "url": "https://pokeapi.co/api/v2/pokemon/538/" },
    { "name": "sawk", "url": "https://pokeapi.co/api/v2/pokemon/539/" },
    { "name": "sewaddle", "url": "https://pokeapi.co/api/v2/pokemon/540/" },
    { "name": "swadloon", "url": "https://pokeapi.co/api/v2/pokemon/541/" },
    { "name": "leavanny", "url": "https://pokeapi.co/api/v2/pokemon/542/" },
    { "name": "venipede", "url": "https://pokeapi.co/api/v2/pokemon/543/" },
    { "name": "whirlipede", "url": "https://pokeapi.co/api/v2/pokemon/544/" },
    { "name": "scolipede", "url": "https://pokeapi.co/api/v2/pokemon/545/" },
    { "name": "cottonee", "url": "https://pokeapi.co/api/v2/pokemon/546/" },
    { "name": "whimsicott", "url": "https://pokeapi.co/api/v2/pokemon/547/" },
    { "name": "petilil", "url": "https://pokeapi.co/api/v2/pokemon/548/" },
    { "name": "lilligant", "url": "https://pokeapi.co/api/v2/pokemon/549/" },
    {
      "name": "basculin-red-striped",
      "url": "https://pokeapi.co/api/v2/pokemon/550/"
    },
    { "name": "sandile", "url": "https://pokeapi.co/api/v2/pokemon/551/" },
    { "name": "krokorok", "url": "https://pokeapi.co/api/v2/pokemon/552/" },
    { "name": "krookodile", "url": "https://pokeapi.co/api/v2/pokemon/553/" },
    { "name": "darumaka", "url": "https://pokeapi.co/api/v2/pokemon/554/" },
    {
      "name": "darmanitan-standard",
      "url": "https://pokeapi.co/api/v2/pokemon/555/"
    },
    { "name": "maractus", "url": "https://pokeapi.co/api/v2/pokemon/556/" },
    { "name": "dwebble", "url": "https://pokeapi.co/api/v2/pokemon/557/" },
    { "name": "crustle", "url": "https://pokeapi.co/api/v2/pokemon/558/" },
    { "name": "scraggy", "url": "https://pokeapi.co/api/v2/pokemon/559/" },
    { "name": "scrafty", "url": "https://pokeapi.co/api/v2/pokemon/560/" },
    { "name": "sigilyph", "url": "https://pokeapi.co/api/v2/pokemon/561/" },
    { "name": "yamask", "url": "https://pokeapi.co/api/v2/pokemon/562/" },
    { "name": "cofagrigus", "url": "https://pokeapi.co/api/v2/pokemon/563/" },
    { "name": "tirtouga", "url": "https://pokeapi.co/api/v2/pokemon/564/" },
    { "name": "carracosta", "url": "https://pokeapi.co/api/v2/pokemon/565/" },
    { "name": "archen", "url": "https://pokeapi.co/api/v2/pokemon/566/" },
    { "name": "archeops", "url": "https://pokeapi.co/api/v2/pokemon/567/" },
    { "name": "trubbish", "url": "https://pokeapi.co/api/v2/pokemon/568/" },
    { "name": "garbodor", "url": "https://pokeapi.co/api/v2/pokemon/569/" },
    { "name": "zorua", "url": "https://pokeapi.co/api/v2/pokemon/570/" },
    { "name": "zoroark", "url": "https://pokeapi.co/api/v2/pokemon/571/" },
    { "name": "minccino", "url": "https://pokeapi.co/api/v2/pokemon/572/" },
    { "name": "cinccino", "url": "https://pokeapi.co/api/v2/pokemon/573/" },
    { "name": "gothita", "url": "https://pokeapi.co/api/v2/pokemon/574/" },
    { "name": "gothorita", "url": "https://pokeapi.co/api/v2/pokemon/575/" },
    { "name": "gothitelle", "url": "https://pokeapi.co/api/v2/pokemon/576/" },
    { "name": "solosis", "url": "https://pokeapi.co/api/v2/pokemon/577/" },
    { "name": "duosion", "url": "https://pokeapi.co/api/v2/pokemon/578/" },
    { "name": "reuniclus", "url": "https://pokeapi.co/api/v2/pokemon/579/" },
    { "name": "ducklett", "url": "https://pokeapi.co/api/v2/pokemon/580/" },
    { "name": "swanna", "url": "https://pokeapi.co/api/v2/pokemon/581/" },
    { "name": "vanillite", "url": "https://pokeapi.co/api/v2/pokemon/582/" },
    { "name": "vanillish", "url": "https://pokeapi.co/api/v2/pokemon/583/" },
    { "name": "vanilluxe", "url": "https://pokeapi.co/api/v2/pokemon/584/" },
    { "name": "deerling", "url": "https://pokeapi.co/api/v2/pokemon/585/" },
    { "name": "sawsbuck", "url": "https://pokeapi.co/api/v2/pokemon/586/" },
    { "name": "emolga", "url": "https://pokeapi.co/api/v2/pokemon/587/" },
    { "name": "karrablast", "url": "https://pokeapi.co/api/v2/pokemon/588/" },
    { "name": "escavalier", "url": "https://pokeapi.co/api/v2/pokemon/589/" },
    { "name": "foongus", "url": "https://pokeapi.co/api/v2/pokemon/590/" },
    { "name": "amoonguss", "url": "https://pokeapi.co/api/v2/pokemon/591/" },
    { "name": "frillish", "url": "https://pokeapi.co/api/v2/pokemon/592/" },
    { "name": "jellicent", "url": "https://pokeapi.co/api/v2/pokemon/593/" },
    { "name": "alomomola", "url": "https://pokeapi.co/api/v2/pokemon/594/" },
    { "name": "joltik", "url": "https://pokeapi.co/api/v2/pokemon/595/" },
    { "name": "galvantula", "url": "https://pokeapi.co/api/v2/pokemon/596/" },
    { "name": "ferroseed", "url": "https://pokeapi.co/api/v2/pokemon/597/" },
    { "name": "ferrothorn", "url": "https://pokeapi.co/api/v2/pokemon/598/" },
    { "name": "klink", "url": "https://pokeapi.co/api/v2/pokemon/599/" },
    { "name": "klang", "url": "https://pokeapi.co/api/v2/pokemon/600/" }
  ]
}
